<svg width="48" height="8" viewBox="0 0 48 8" fill="none" xmlns="http://www.w3.org/2000/svg">
<path fill-rule="evenodd" clip-rule="evenodd" d="M3.99968 0.333496C4.12656 0.333496 4.24243 0.40552 4.29859 0.519288L5.2511 2.44898L7.38123 2.76033C7.50675 2.77868 7.61097 2.86668 7.6501 2.98735C7.68923 3.10802 7.65647 3.24044 7.56559 3.32895L6.02452 4.82995L6.38822 6.95048C6.40967 7.07554 6.35825 7.20194 6.2556 7.27651C6.15294 7.35109 6.01684 7.36091 5.90453 7.30185L3.99968 6.30011L2.09483 7.30185C1.98253 7.36091 1.84643 7.35109 1.74377 7.27651C1.64111 7.20194 1.5897 7.07554 1.61115 6.95048L1.97484 4.82995L0.433773 3.32895C0.342901 3.24044 0.310143 3.10802 0.349269 2.98735C0.388395 2.86668 0.492621 2.77868 0.618141 2.76033L2.74826 2.44898L3.70078 0.519288C3.75694 0.40552 3.87281 0.333496 3.99968 0.333496ZM3.99968 1.41991L3.26859 2.90104C3.22007 2.99932 3.12634 3.06747 3.01789 3.08333L1.38249 3.32236L2.56559 4.47471C2.64422 4.55129 2.68011 4.66167 2.66155 4.76984L2.38241 6.39739L3.84453 5.62847C3.94166 5.57739 4.05771 5.57739 4.15483 5.62847L5.61696 6.39739L5.33781 4.76984C5.31926 4.66167 5.35515 4.55129 5.43377 4.47471L6.61688 3.32236L4.98147 3.08333C4.87302 3.06747 4.77929 2.99932 4.73078 2.90104L3.99968 1.41991Z" fill="#F2994A"/>
<path d="M2.33333 5L1 3L3 2.66667L4 1L5 2.66667L7 3.33333L5.66667 4.66667L6 7L4 6L2 7L2.33333 5Z" fill="#F2994A"/>
<path fill-rule="evenodd" clip-rule="evenodd" d="M13.9997 0.333496C14.1266 0.333496 14.2424 0.40552 14.2986 0.519288L15.2511 2.44898L17.3812 2.76033C17.5067 2.77868 17.611 2.86668 17.6501 2.98735C17.6892 3.10802 17.6565 3.24044 17.5656 3.32895L16.0245 4.82995L16.3882 6.95048C16.4097 7.07554 16.3583 7.20194 16.2556 7.27651C16.1529 7.35109 16.0168 7.36091 15.9045 7.30185L13.9997 6.30011L12.0948 7.30185C11.9825 7.36091 11.8464 7.35109 11.7438 7.27651C11.6411 7.20194 11.5897 7.07554 11.6111 6.95048L11.9748 4.82995L10.4338 3.32895C10.3429 3.24044 10.3101 3.10802 10.3493 2.98735C10.3884 2.86668 10.4926 2.77868 10.6181 2.76033L12.7483 2.44898L13.7008 0.519288C13.7569 0.40552 13.8728 0.333496 13.9997 0.333496ZM13.9997 1.41991L13.2686 2.90104C13.2201 2.99932 13.1263 3.06747 13.0179 3.08333L11.3825 3.32236L12.5656 4.47471C12.6442 4.55129 12.6801 4.66167 12.6616 4.76984L12.3824 6.39739L13.8445 5.62847C13.9417 5.57739 14.0577 5.57739 14.1548 5.62847L15.617 6.39739L15.3378 4.76984C15.3193 4.66167 15.3551 4.55129 15.4338 4.47471L16.6169 3.32236L14.9815 3.08333C14.873 3.06747 14.7793 2.99932 14.7308 2.90104L13.9997 1.41991Z" fill="#F2994A"/>
<path d="M12.3333 5L11 3L13 2.66667L14 1L15 2.66667L17 3.33333L15.6667 4.66667L16 7L14 6L12 7L12.3333 5Z" fill="#F2994A"/>
<path fill-rule="evenodd" clip-rule="evenodd" d="M24.0002 0.333496C24.127 0.333496 24.2429 0.40552 24.2991 0.519288L25.2516 2.44898L27.3817 2.76033C27.5072 2.77868 27.6115 2.86668 27.6506 2.98735C27.6897 3.10802 27.657 3.24044 27.5661 3.32895L26.025 4.82995L26.3887 6.95048C26.4102 7.07554 26.3587 7.20194 26.2561 7.27651C26.1534 7.35109 26.0173 7.36091 25.905 7.30185L24.0002 6.30011L22.0953 7.30185C21.983 7.36091 21.8469 7.35109 21.7443 7.27651C21.6416 7.20194 21.5902 7.07554 21.6116 6.95048L21.9753 4.82995L20.4343 3.32895C20.3434 3.24044 20.3106 3.10802 20.3498 2.98735C20.3889 2.86668 20.4931 2.77868 20.6186 2.76033L22.7488 2.44898L23.7013 0.519288C23.7574 0.40552 23.8733 0.333496 24.0002 0.333496ZM24.0002 1.41991L23.2691 2.90104C23.2206 2.99932 23.1268 3.06747 23.0184 3.08333L21.383 3.32236L22.5661 4.47471C22.6447 4.55129 22.6806 4.66167 22.662 4.76984L22.3829 6.39739L23.845 5.62847C23.9421 5.57739 24.0582 5.57739 24.1553 5.62847L25.6174 6.39739L25.3383 4.76984C25.3197 4.66167 25.3556 4.55129 25.4343 4.47471L26.6174 3.32236L24.982 3.08333C24.8735 3.06747 24.7798 2.99932 24.7313 2.90104L24.0002 1.41991Z" fill="#F2994A"/>
<path d="M22.3333 5L21 3L23 2.66667L24 1L25 2.66667L27 3.33333L25.6667 4.66667L26 7L24 6L22 7L22.3333 5Z" fill="#F2994A"/>
<path fill-rule="evenodd" clip-rule="evenodd" d="M34.0002 0.333496C34.127 0.333496 34.2429 0.40552 34.2991 0.519288L35.2516 2.44898L37.3817 2.76033C37.5072 2.77868 37.6115 2.86668 37.6506 2.98735C37.6897 3.10802 37.657 3.24044 37.5661 3.32895L36.025 4.82995L36.3887 6.95048C36.4102 7.07554 36.3587 7.20194 36.2561 7.27651C36.1534 7.35109 36.0173 7.36091 35.905 7.30185L34.0002 6.30011L32.0953 7.30185C31.983 7.36091 31.8469 7.35109 31.7443 7.27651C31.6416 7.20194 31.5902 7.07554 31.6116 6.95048L31.9753 4.82995L30.4343 3.32895C30.3434 3.24044 30.3106 3.10802 30.3498 2.98735C30.3889 2.86668 30.4931 2.77868 30.6186 2.76033L32.7488 2.44898L33.7013 0.519288C33.7574 0.40552 33.8733 0.333496 34.0002 0.333496ZM34.0002 1.41991L33.2691 2.90104C33.2206 2.99932 33.1268 3.06747 33.0184 3.08333L31.383 3.32236L32.5661 4.47471C32.6447 4.55129 32.6806 4.66167 32.662 4.76984L32.3829 6.39739L33.845 5.62847C33.9421 5.57739 34.0582 5.57739 34.1553 5.62847L35.6174 6.39739L35.3383 4.76984C35.3197 4.66167 35.3556 4.55129 35.4343 4.47471L36.6174 3.32236L34.982 3.08333C34.8735 3.06747 34.7798 2.99932 34.7313 2.90104L34.0002 1.41991Z" fill="#F2994A"/>
<path d="M32.3333 5L31 3L33 2.66667L34 1L35 2.66667L37 3.33333L35.6667 4.66667L36 7L34 6L32 7L32.3333 5Z" fill="#F2994A"/>
<path fill-rule="evenodd" clip-rule="evenodd" d="M44.0002 0.333496C44.127 0.333496 44.2429 0.40552 44.2991 0.519288L45.2516 2.44898L47.3817 2.76033C47.5072 2.77868 47.6115 2.86668 47.6506 2.98735C47.6897 3.10802 47.657 3.24044 47.5661 3.32895L46.025 4.82995L46.3887 6.95048C46.4102 7.07554 46.3587 7.20194 46.2561 7.27651C46.1534 7.35109 46.0173 7.36091 45.905 7.30185L44.0002 6.30011L42.0953 7.30185C41.983 7.36091 41.8469 7.35109 41.7443 7.27651C41.6416 7.20194 41.5902 7.07554 41.6116 6.95048L41.9753 4.82995L40.4343 3.32895C40.3434 3.24044 40.3106 3.10802 40.3498 2.98735C40.3889 2.86668 40.4931 2.77868 40.6186 2.76033L42.7488 2.44898L43.7013 0.519288C43.7574 0.40552 43.8733 0.333496 44.0002 0.333496ZM44.0002 1.41991L43.2691 2.90104C43.2206 2.99932 43.1268 3.06747 43.0184 3.08333L41.383 3.32236L42.5661 4.47471C42.6447 4.55129 42.6806 4.66167 42.662 4.76984L42.3829 6.39739L43.845 5.62847C43.9421 5.57739 44.0582 5.57739 44.1553 5.62847L45.6174 6.39739L45.3383 4.76984C45.3197 4.66167 45.3556 4.55129 45.4343 4.47471L46.6174 3.32236L44.982 3.08333C44.8735 3.06747 44.7798 2.99932 44.7313 2.90104L44.0002 1.41991Z" fill="#F2994A"/>
<path d="M42.3333 5L41 3L43 2.66667L44 1L45 2.66667L47 3.33333L45.6667 4.66667L46 7L44 6L42 7L42.3333 5Z" fill="#F2994A"/>
</svg>
