<svg width="26" height="26" viewBox="0 0 26 26" fill="none" xmlns="http://www.w3.org/2000/svg">
<path fill-rule="evenodd" clip-rule="evenodd" d="M11.7787 23.8513C11.7787 25.0164 11.8196 25.961 12.9997 25.961C14.1798 25.961 14.2207 25.0164 14.2207 23.8513V14.5083H23.6835C24.8636 14.5083 25.8202 14.4679 25.8202 13.3028C25.8202 12.1376 24.8636 12.0972 23.6835 12.0972H14.2207V2.75424C14.2207 1.58908 14.1798 0.644531 12.9997 0.644531C11.8196 0.644531 11.7787 1.58908 11.7787 2.75424V12.0972H2.31595C1.13586 12.0972 0.179199 12.1376 0.179199 13.3028C0.179199 14.4679 1.13586 14.5083 2.31595 14.5083H11.7787V23.8513Z" fill="#CCCCCC"/>
</svg>
