<svg width="40" height="39" viewBox="0 0 40 39" fill="none" xmlns="http://www.w3.org/2000/svg">
<path fill-rule="evenodd" clip-rule="evenodd" d="M18.1688 35.2781C18.1688 37.0259 18.2302 38.4427 20.0003 38.4427C21.7704 38.4427 21.8318 37.0259 21.8318 35.2781V26.2637C21.8318 23.5023 24.0704 21.2637 26.8318 21.2637H36.0259C37.7961 21.2637 39.2311 21.2031 39.2311 19.4554C39.2311 17.7076 37.7961 17.647 36.0259 17.647H26.8318C24.0704 17.647 21.8318 15.4085 21.8318 12.647V3.63257C21.8318 1.88484 21.7704 0.468018 20.0003 0.468018C18.2302 0.468018 18.1688 1.88484 18.1688 3.63257V12.647C18.1688 15.4085 15.9302 17.647 13.1688 17.647H3.97466C2.20452 17.647 0.769531 17.7076 0.769531 19.4554C0.769531 21.2031 2.20452 21.2637 3.97466 21.2637H13.1688C15.9302 21.2637 18.1688 23.5023 18.1688 26.2637V35.2781Z" fill="#CCCCCC"/>
</svg>
