<svg width="67" height="39" viewBox="0 0 67 39" fill="none" xmlns="http://www.w3.org/2000/svg">
<path fill-rule="evenodd" clip-rule="evenodd" d="M30.3874 35.2784C30.3874 37.0261 30.4917 38.4429 33.5009 38.4429C36.5101 38.4429 36.6145 37.0261 36.6145 35.2784V26.2639C36.6145 23.5025 38.853 21.2639 41.6144 21.2639H60.7445C63.7537 21.2639 66.1932 21.2033 66.1932 19.4556C66.1932 17.7079 63.7537 17.6473 60.7445 17.6473H41.6145C38.853 17.6473 36.6145 15.4087 36.6145 12.6473V3.63282C36.6145 1.88508 36.5101 0.468262 33.5009 0.468262C30.4917 0.468262 30.3873 1.88508 30.3873 3.63282V12.6473C30.3873 15.4087 28.1488 17.6473 25.3873 17.6473H6.25731C3.24807 17.6473 0.808594 17.7079 0.808594 19.4556C0.808594 21.2033 3.24807 21.2639 6.25731 21.2639H25.3874C28.1488 21.2639 30.3874 23.5025 30.3874 26.2639V35.2784Z" fill="#CCCCCC"/>
</svg>
